%YAML 1.1
%TAG !u! tag:unity3d.com,2011:
--- !u!21 &2100000
Material:
  serializedVersion: 6
  m_ObjectHideFlags: 0
  m_CorrespondingSourceObject: {fileID: 0}
  m_PrefabInstance: {fileID: 0}
  m_PrefabAsset: {fileID: 0}
  m_Name: Grass
  m_Shader: {fileID: 4800000, guid: f3e4565c03af08c44a60dc9245834265, type: 3}
  m_ShaderKeywords: 
  m_LightmapFlags: 4
  m_EnableInstancingVariants: 1
  m_DoubleSidedGI: 0
  m_CustomRenderQueue: -1
  stringTagMap: {}
  disabledShaderPasses: []
  m_SavedProperties:
    serializedVersion: 3
    m_TexEnvs:
    - _MainTex:
        m_Texture: {fileID: 2800000, guid: 3030f5606b0d9964ebabf551acf0a7ff, type: 3}
        m_Scale: {x: 1, y: 1}
        m_Offset: {x: 0, y: 0}
    - _RTMaskTex:
        m_Texture: {fileID: 8400000, guid: 2af9d5bc77ca50248b4fdf19cd18045d, type: 2}
        m_Scale: {x: 1, y: 1}
        m_Offset: {x: 0, y: 0}
    m_Floats:
    - _Glossiness: 0
    - _Metallic: 0
    - _RTSize: 50
    - _Size: 1.72
    m_Colors:
    - _Color: {r: 0.4627451, g: 0.58431375, b: 0.27058825, a: 1}
    - _Position: {r: -11.06, g: 0, b: -1.1, a: 0}
  m_BuildTextureStacks: []
